﻿[
    {
        "_id":"c-10",
        "_parentId":"b-10",
        "_type":"component",
        "_component":"text",
        "_classes":"",
        "_layout":"full",
        "title":"",
        "displayTitle":"用视觉元素讲述打动人心的品牌故事",
        "body":"",
        "instruction":"",
        "_pageLevelProgress": {
        "_isEnabled": false
        }
    },
    {
        "_id":"c-11",
        "_parentId":"b-10",
        "_type":"component",
        "_component":"graphic",
        "_classes":"",
        "_layout":"left",
        "title":"",
        "displayTitle":"",
        "body":"",
        "instruction":"",
        "_graphic": {
            "alt": "替换文本",
            "title": "标题文本",
            "src": "course/en/images/01_instagram_for_business/kitkat.png"
        },
        "_pageLevelProgress": {
        "_isEnabled": false
        }
    },
    {
        "_id":"c-12",
        "_parentId":"b-10",
        "_type":"component",
        "_component":"text",
        "_classes":"",
        "_layout":"right",
        "title":"用视觉元素讲述打动人心的品牌故事",
        "displayTitle":"",
        "body":"<br>对于商家而言，Instagram 是开展视觉营销的理想平台，可帮助吸引受众采取操作并获得显著成效。<br><br>借助 Instagram，商家可以点燃人们心中的热情，打造沉浸式视觉盛宴，激发人们的探索欲。",
        "instruction":"",
        "_pageLevelProgress": {
        "_isEnabled": true
        }
    },
    {
        "_id":"c-15",
        "_parentId":"b-15",
        "_type":"component",
        "_component":"text",
        "_classes":"",
        "_layout":"full",
        "title":"无缝体验",
        "displayTitle":"无缝体验",
        "body":"在 Instagram，广告主的内容可与用户关注的其他内容无痕融合，一同展示在动态消息中。<br><br>这正是在 Instagram 发布广告的优势所在，能够打造与其他社群内容无缝融合的广告体验。商家在 Instagram 运用丰富的图像讲述品牌故事，且注重情绪感染时，能让自己的广告看起来更加自然，达到软性营销的效果。<br><br> Instagram 是用户探索世界、获得灵感的平台。 在 Instagram 平台上，您能借助图片和视频传达营销信息，与追随内心激情、乐于探索的用户碰撞出精彩的火花，让他们对品牌留下深刻印象。正因如此，Instagram 能为您提供一个相关度极高的营销环境，让您与受众分享品牌故事，展示商品、应用或服务。" ,
        "instruction":"",
        "_pageLevelProgress": {
        "_isEnabled": true
        }
    },
    {
        "_id":"c-20",
        "_parentId":"b-20",
        "_type":"component",
        "_component":"text",
        "_classes":"",
        "_layout":"full",
        "title":"Instagram 蕴藏着怎样的商机？",
        "displayTitle":"Instagram 蕴藏着怎样的商机？",
        "body":"从 Instagram 问世以来，众商家就一直活跃在该平台上。 自 2013 年起，很多商家都在 Instagram 投放精美的图片和视频广告，成功与关注者建立联系并与之互动。 如今，有 200 多万广告主<sup>1</sup>都在利用 Instagram 广告推广业务，激发众多用户的广泛兴趣。 Instagram 的用户遍及全球，且十分多元化，因此各种规模的商家都能开展 Instagram 营销活动，并依靠其精准的定位功能和视觉化故事营销手法获得成功。" ,
        "instruction":"",
        "_pageLevelProgress": {
        "_isEnabled": true
        }
    },
    {
        "_id":"c-21",
        "_parentId":"b-20",
        "_type":"component",
        "_component":"canvas-animation",
        "_classes":"",
        "_layout":"full",
        "title":"成效",
        "displayTitle":"",
        "animationName":"TestAnimation",
        "animation":"course/en/animations/test/testAnimation.js",
        "body":"<div id='TestAnimation'></div>",
        "_resources": {
            "leftImage":"course/en/images/01_instagram_for_business/stat1.png",
            "centerImage":"course/en/images/01_instagram_for_business/stat2.png",
            "rightImage":"course/en/images/01_instagram_for_business/stat3.png",
            "leftText":"80% 的帐户会在 Instagram 关注商家。",
            "centerText":"60% 的用户\n会在 Instagram 发现\n新商品信息。",
            "rightText":"75% 的用户会受到帖子的激励而\n采取操作。"
        },
        "instruction":"",
        "_pageLevelProgress": {
        "_isEnabled": false
        }
    },
    {
        "_id":"c-22",
        "_parentId":"b-20",
        "_type":"component",
        "_component":"animate-message",
        "_classes":"",
        "_layout":"full",
        "title":"",
        "displayTitle":"",
        "body":"<h2>Instagram 视频蕴藏的巨大商机</h2>",
        "instruction":"",
        "titleAnimation":"transition.slideRightIn",
        "bodyAnimation":"transition.slideLeftIn",
        "backgroundColor":"#4080ff,#4080ff,#4080ff",
        "_spacing":"20px",
        "_pageLevelProgress": {
            "_isEnabled": true
        },
        "_items": [
            {
                "body":"<div style='padding-left:20px;padding-right:15px;padding-top:20px; color:#ffffff;'>用户在 Intagram 观看视频的时间同比增长超过 80%。<sup>5</sup></div>"
            },
            {
                "body":"<div style='padding-left:20px;padding-right:15px;padding-top:20px; color:#ffffff;'>Instagram 平台的每日视频发布量同比增长超过 4 倍。<sup>6</sup></div>"
            },
            {
                "body":"<div style='padding-left:20px;padding-right:15px;padding-top:20px; color:#ffffff;'>超出 60% 的快拍视频都是有声播放的。<sup>7</sup></div>"
            }
        ]
    },
    {
        "_id":"c-23",
        "_parentId":"b-20",
        "_type":"component",
        "_component":"text",
        "_classes":"",
        "_layout":"full",
        "title":"Instagram 如何助您实现业务发展",
        "displayTitle":"Instagram 如何助您实现业务发展",
        "body":"Instagram 可从以下几个方面帮助您实现业务发展：<br><br><ul><li>在极具创意的社群环境中大规模面向客户开展营销。</li><li>提升受众对新商品和营销活动的认知、兴趣和购买意向。</li><li>在充满视觉灵感的平台展示商品、应用或服务。</li><li>提升网站点击量和转化量。</li><li>提升移动应用安装量和使用率。</li><li>吸引用户全程走完营销漏斗，从品牌认知直至采取操作。</li></ul><br>众多商家都利用与受众高度相关并与平台无缝融合的营销创意在 Instagram 大获成功。 您可以利用视觉图像唤起情感共鸣，激发受众的兴趣，并吸引他们采取操作。<br><br>如需获取更多创意灵感，请参阅 <a href='https://business.instagram.com/' target='_blank'>Instagram for Business</a> 网站。<br><br><hr><sup>1</sup>Instagram 内部数据，2017 年 9 月<br><sup>2</sup>Instagram 内部数据，2017 年 4 月<br><sup>3,4</sup>Instagram 内部数据，2017 年 3 月<br><sup>5,6</sup>Instagram 内部数据，2017 年 6 月<br><sup>7</sup>Instagram 内部数据，2017 年 7 月<br>" ,
        "instruction":"",
        "_pageLevelProgress": {
        "_isEnabled": true
        }
    },
    {
        "_id":"c-25",
        "_parentId":"b-25",
        "_type":"component",
        "_component":"co-jump",
        "_classes":"color-test",
        "_preLinkBody":"接下来，我们来学习一些 Instagram  ",
        "_linkBody":"创意最佳实践",
        "_postLinkBody":" 。",
        "_link":"#/id/co-10",
        "_graphic":"adapt/css/assets/icon_nextPage.png",
        "_pageLevelProgress": {
            "_isEnabled": false
        }
    },
    {
        "_id":"c-50",
        "_parentId":"b-50",
        "_type":"component",
        "_component":"text",
        "_classes":"",
        "_layout":"full",
        "title":"创意最佳实践",
        "displayTitle":"",
        "body":"在 Instagram，人们一直使用图片作为视觉交流的媒介；而如今，这个平台上也涌现出越来越多的视频。 对于品牌来说，令人印象深刻的视觉形象是在平台推动切实业务成效的关键。值得庆幸的是：在 Instagram 平台开展高效交流的最佳实践永远不会过时，那就是视觉创意应制作精良，讲述品牌故事，能产生良好的品牌效应，当然还需要准确定位目标受众。许多行之有效的方式都能帮助您取得重要的业务成果，包括重新利用现有素材，或是以各种制作成本打造定制化创意等等。下面我们来介绍一些创意最佳实践和指南。",
        "instruction":"",
        "_pageLevelProgress": {
        "_isEnabled": true
        }
    },
    {
        "_id":"c-55",
        "_parentId":"b-55",
        "_type":"component",
        "_component":"animate-message",
        "_classes":"",
        "_layout":"full",
        "title":"从清晰的目标和创意概念着手",
        "displayTitle":"",
        "body":"",
        "instruction":"",
        "titleAnimation":"transition.slideRightIn",
        "bodyAnimation":"transition.slideLeftIn",
        "backgroundColor":"#ffffff,#ffffff,#ffffff",
        "_spacing":"20px",
        "_pageLevelProgress": {
        "_isEnabled": true
        },
        "_items": [
            {
                "item_title": "<b>从清晰的目标和创意概念着手</b>",
                "body":"<br><img src='course/en/images/02_creative_best_practices/frooti_oct2015.png' style='float:left;width:280px;height:283px;padding-right:10px;'><div style='min-height:283;'' >优秀的 Instagram 广告能将强有力的广告概念与清晰的营销目标联系起来。不论您的目标是提升品牌知名度、网站点击量还是应用安装量，都应使用与广告目标相吻合的广告概念。"
            }
        ]
    },
    {
        "_id":"c-56",
        "_parentId":"b-55",
        "_type":"component",
        "_component":"animate-message",
        "_classes":"",
        "_layout":"full",
        "title":"宣传品牌形象",
        "displayTitle":"",
        "body":"",
        "instruction":"",
        "titleAnimation":"transition.slideRightIn",
        "bodyAnimation":"transition.slideLeftIn",
        "backgroundColor":"#ffffff,#ffffff,#ffffff",
        "_spacing":"20px",
        "_pageLevelProgress": {
        "_isEnabled": true
        },
        "_items": [
        {
            "item_title": "<br><b>宣传品牌形象</b>",
            "body":"<br><img src='course/en/images/02_creative_best_practices/mcdonaldstw_dec2015.png' style='float:right;padding-right:10px; width:280px;height:283px;padding-left:10px;'>让广告打上品牌烙印并在各种营销活动中保持高度的品牌一致性。为图片和视频使用相互关联的元素，例如相似的色彩、构图或摄影风格，让用户一眼就能认出您的品牌。</li></ul>"
            }
        ]
    },
    {
        "_id":"c-57",
        "_parentId":"b-55",
        "_type":"component",
        "_component":"animate-message",
        "_classes":"",
        "_layout":"full",
        "title":"精心打磨广告",
        "displayTitle":"",
        "body":"",
        "instruction":"",
        "titleAnimation":"transition.slideRightIn",
        "bodyAnimation":"transition.slideLeftIn",
        "backgroundColor":"#ffffff,#ffffff,#ffffff",
        "_spacing":"20px",
        "_pageLevelProgress": {
        "_isEnabled": true
        },
        "_items": [
            {
                "item_title": "<b>精心打磨广告</b>",
                "body":"<br><img src='course/en/images/02_creative_best_practices/guerlain_jul2015.png' style='float:left;width:280px;height:283px;padding-right:10px;'>使用精心制作的广告在 Instagram 提升品牌影响力。拍摄精良、内容有趣且具有美感的广告能带来更可观的成效。您制作的内容需要能够吸引用户眼球，激发用户深入了解的兴趣。"
            }
        ]
    },
    {
        "_id":"c-71",
        "_parentId":"b-60",
        "_type":"component",
        "_component":"co-jump",
        "_classes":"color-test",
        "_preLinkBody":"接下来，我们来学习一些 ",
        "_linkBody":"广告主实用技巧",
        "_postLinkBody":"。",
        "_link":"#/id/co-15",
        "_graphic":"adapt/css/assets/icon_nextPage.png",
        "_pageLevelProgress": {
            "_isEnabled": false
        }
    },
    {
        "_id":"c-100",
        "_parentId":"b-100",
        "_type":"component",
        "_component":"text",
        "_classes":"",
        "_layout":"full",
        "title":"",
        "displayTitle":"",
        "body":"利用 Instagram，广告主能从业务的内容<i></i>、使用方法<i></i>以及最关键的使用原因<i></i>这些基本点入手，推广业务。",
        "instruction":"",
        "_pageLevelProgress": {
        "_isEnabled": false
        }
    },
    {
        "_id": "c-105",
        "_parentId":"b-110",
        "_type":"component",
        "_component":"reveal",
        "_classes":"",
        "_layout":"left",
        "_direction":"left",
        "_hideControl":true,
        "title": "从业务的“内容”、“使用方法”以及最关键的“使用原因”入手推广业务",
        "displayTitle": "",
        "body": "  ",
        "first": {
            "src": "course/en/images/03_tips_for_advertisers/reveals/reveal_image_left.png",
            "alt": "",
            "title": "",
            "body": "<b>点击图片旁的箭头了解更多信息。</b>",
            "centerText":true,
            "_maxCharacters": 30,
            "moreText": ""
        },
        "second": {
            "src": "course/en/images/03_tips_for_advertisers/reveals/reveal_image_left.png",
            "alt": "",
            "title": "",
            "body": "",
            "centerText":true,
            "_maxCharacters": 40,
            "moreText": ""
        },
        "control": {
            "showText": "显示",
            "hideText": "隐藏"
        },
        "_pageLevelProgress": {
            "_isEnabled": true
        }
    },
    {
        "_id": "c-110",
        "_parentId":"b-110",
        "_type":"component",
        "_component":"reveal",
        "_classes":"",
        "_layout":"right",
        "_direction":"left",
        "title": "内容",
        "displayTitle": "",
        "body": "  ",
        "first": {
            "src": "course/en/images/03_tips_for_advertisers/reveals/reveal_1_1.png",
            "alt": "",
            "title": "",
            "body": "<b>内容</b>",
            "centerText":false,
            "_maxCharacters": 10,
            "moreText": "更多"
        },
        "second": {
            "src": "course/en/images/03_tips_for_advertisers/reveals/reveal_1_2.png",
            "alt": "",
            "title": "",
            "body": "所推广的是什么样的商品、应用或服务？",
            "centerText":true,
            "_maxCharacters": 50,
            "moreText": "更多"
        },
        "control": {
            "showText": "显示",
            "hideText": "隐藏"
        },
        "_pageLevelProgress": {
            "_isEnabled": true
        }
    },
    {
        "_id": "c-111",
        "_parentId":"b-110",
        "_type":"component",
        "_component":"reveal",
        "_classes":"",
        "_layout":"left",
        "_direction":"left",
        "title": "使用方法",
        "displayTitle": "",
        "body": "  ",
        "first": {
            "src": "course/en/images/03_tips_for_advertisers/reveals/reveal_2_1.png",
            "alt": "",
            "title": "",
            "body": "<b>使用方法</b>",
            "centerText":false,
            "_maxCharacters": 10,
            "moreText": "更多"
        },
        "second": {
            "src": "course/en/images/03_tips_for_advertisers/reveals/reveal_2_2.png",
            "alt": "",
            "title": "",
            "body": "如何使用所推广的商品、应用或服务？",
            "centerText":true,
            "_maxCharacters": 50,
            "moreText": "更多"
        },
        "control": {
            "showText": "显示",
            "hideText": "隐藏"
        },
        "_pageLevelProgress": {
            "_isEnabled": true
        }
    },
    {
        "_id": "c-112",
        "_parentId":"b-110",
        "_type":"component",
        "_component":"reveal",
        "_classes":"",
        "_layout":"right",
        "_direction":"left",
        "title": "使用原因",
        "displayTitle": "",
        "body": "  ",
        "first": {
            "src": "course/en/images/03_tips_for_advertisers/reveals/reveal_3_1.png",
            "alt": "",
            "title": "",
            "body": "<b>使用原因</b>",
            "centerText":false,
            "_maxCharacters": 10,
            "moreText": "更多"
        },
        "second": {
            "src": "course/en/images/03_tips_for_advertisers/reveals/reveal_3_2.png",
            "alt": "",
            "title": "",
            "body": "品牌或商品为什么能引起共鸣、激发人们使用？",
            "centerText":true,
            "_maxCharacters": 50,
            "moreText": "更多"
        },
        "control": {
            "showText": "显示",
            "hideText": "隐藏"
        },
        "_pageLevelProgress": {
            "_isEnabled": true
        }
    },
    {
        "_id":"c-115",
        "_parentId":"b-115",
        "_type":"component",
        "_component":"animate-message",
        "_classes":"",
        "_layout":"full",
        "title":"1.首先设立明确目标",
        "displayTitle":"",
        "body":"",
        "instruction":"",
        "titleAnimation":"transition.slideRightIn",
        "bodyAnimation":"transition.slideLeftIn",
        "backgroundColor":"#ffffff,#ffffff,#ffffff",
        "_spacing":"20px",
        "_pageLevelProgress": {
        "_isEnabled": true
        },
        "_items": [
            {
                "item_title": "",
                "body":"<br><img src='course/en/images/03_tips_for_advertisers/goal.png' style='float:left;width:280px;height:283px;padding-right:10px;'><div style='min-height:283;'><br><b>1.首先设立明确目标</b><br><br>思考 Instagram 如何与您的整体营销策略相契合。 您的目标是提升品牌知名度，转变品牌认知，还是覆盖新受众？<br><br>Instagram 是一个高度重视视觉创意的社群，选择一两个可借助平台的这一特点来实现的目标。"
            }
        ]
    },
    {
        "_id":"c-116",
        "_parentId":"b-115",
        "_type":"component",
        "_component":"animate-message",
        "_classes":"",
        "_layout":"full",
        "title":"2.选择适当主题，讲述主旨一致的品牌故事",
        "displayTitle":"",
        "body":"",
        "instruction":"",
        "titleAnimation":"transition.slideRightIn",
        "bodyAnimation":"transition.slideLeftIn",
        "backgroundColor":"#ffffff,#ffffff,#ffffff",
        "_spacing":"20px",
        "_pageLevelProgress": {
        "_isEnabled": true
        },
        "_items": [
        {
            "item_title": "",
            "body":"<br><img src='course/en/images/03_tips_for_advertisers/story.png' style='float:left;width:280px;height:283px;padding-right:10px;'><div style='min-height:283;'><br><b>2.选择适当主题，讲述主旨一致的品牌故事</b><br><br>选择符合品牌理念并且最适合使用精彩图片来表现的故事情节。<br><br>配合选定主题创建后续帖子，打造多样化内容，并保持前后内容主旨一致。"
            }
        ]
    },
    {
        "_id":"c-117",
        "_parentId":"b-115",
        "_type":"component",
        "_component":"animate-message",
        "_classes":"",
        "_layout":"full",
        "title":"3.花时间制作高质量内容",
        "displayTitle":"",
        "body":"",
        "instruction":"",
        "titleAnimation":"transition.slideRightIn",
        "bodyAnimation":"transition.slideLeftIn",
        "backgroundColor":"#ffffff,#ffffff,#ffffff",
        "_spacing":"20px",
        "_pageLevelProgress": {
        "_isEnabled": true
        },
        "_items": [
            {
                "item_title": "",
                "body":"<br><img src='course/en/images/03_tips_for_advertisers/quality.png' style='float:left;width:280px;height:283px;padding-right:10px;'><div style='min-height:283;'><br><b>3.花时间制作高质量内容</b><br><br>制作精心设计且契合平台体验的图片和视频。<br><br>花时间学习其他品牌和 Instagram 人气用户的做法，借鉴他们的成功经验。"
            }
        ]
    },
    {
      "_id": "c-120",
      "_parentId":"b-120",
      "_classes": "",
      "_type":"component",
      "_component": "hotgraphic",
      "_layout": "full",
      "title": "更多广告入门技巧",
      "displayTitle": "更多广告入门技巧",
      "body": "点击下方图片上的热点，了解更多 Instagram 广告入门技巧。",
      "mobileBody": "",
      "instruction":"",
      "_setCompletionOn":"inview",
      "_pageLevelProgress": {
        "_isEnabled": true
        },
      "_useGraphicsAsPins": false,
      "_canCycleThroughPagination": false,
      "_graphic": {
        "src": "course/en/images/03_tips_for_advertisers/stancesocks.png",
        "alt": "",
        "title": "标题"
      },
      "_items": [
        {
            "title": "头像",
            "body": "越简单越好！建议您使用品牌徽标或图形标志。请注意，在大多数手机上，头像都将被裁剪成一个非常小的图片放入圆圈内（150 x 150 像素）。",
            "strapline": "头像",
            "_graphic": {
                "src": "course/en/images/03_tips_for_advertisers/hotImage/profile_photo.png",
                "alt": "替换文本",
                "title": "标题文本",
                "_classes": "cols-2 rows-1"
            },
            "_top": 6,
            "_left": 3
        },
        {
            "title": "帐户名称",
            "body": "帐户名称最好是使用您的品牌名称，这可以让受众更容易联想到您的品牌。请记住，最多可使用 30 个字符。<br><br> 请阅读<a href='https://help.instagram.com/477434105621119/' target='_blank'>社群守则</a>和<a href='https://help.instagram.com/478745558852511/' target='_blank'>使用条款</a>，详细了解帐户名称。",
            "strapline": "帐户名称",
            "_classes": "",
            "_graphic": {
                "src": "course/en/images/03_tips_for_advertisers/hotImage/account_name.png",
                "alt": "替换文本",
                "title": "标题文本",
                "_classes": ""
            },
            "_top": 7,
            "_left": 20
        },
        {
            "title": "文本",
            "body": "说明文字应简明扼要且富有新意。添加几个话题标签（建议最多添加 3 个，以免影响帖子的简洁性）。同时建议向用户提问，鼓励他们参与互动。",
            "strapline": "文本",
            "_graphic": {
                "src": "course/en/images/03_tips_for_advertisers/hotImage/text.png",
                "alt": "替换文本",
                "title": "标题文本",
                "_classes": "cols-2 rows-1"
            },
            "_classes": "",
            "_top": 82,
            "_left": 65
        },
        {
            "title": "评论和点赞",
            "body": "使用话题标签、地点和“有你的照片”，寻找其他用户在 Instagram 发布的关于您品牌的图片。",
            "strapline": "评论和点赞",
            "_graphic": {
                "src": "course/en/images/03_tips_for_advertisers/hotImage/commenting_liking.png",
                "alt": "替换文本",
                "title": "标题文本",
                "_classes": "cols-2 rows-1"
            },
            "_classes": "",
            "_top": 74,
            "_left": 18
        },
        {
            "title": "行动号召",
            "body": "添加清晰明了的行动号召按钮，助您实现期望目标。",
            "strapline": "行动号召",
            "_graphic": {
                "src": "course/en/images/03_tips_for_advertisers/hotImage/cta.png",
                "alt": "替换文本",
                "title": "标题文本",
                "_classes": "cols-2 rows-1"
            },
            "_classes": "",
            "_top": 68,
            "_left": 9
        },
        {
            "title": "标记",
            "body": "可添加照片或视频的拍摄位置，帮助呈现图片所描述的故事。还可使用“添加用户”功能，标记图片中的帐户，帮助扩大受众覆盖面。",
            "strapline": "标记",
            "_graphic": {
                "src": "course/en/images/03_tips_for_advertisers/hotImage/tagging.png",
                "alt": "替换文本",
                "title": "标题文本",
                "_classes": "cols-2 rows-1"
            },
            "_classes": "",
            "_top": 82,
            "_left": 21
        },
        {
            "title": "图片工具",
            "body": "使用滤镜和 Instagram 应用的其他工具编辑图片。这些特效可让图片具有“Instagram 特色”，增加用户好感，吸引他们做出回应。",
            "strapline": "图片工具",
            "_graphic": {
                "src": "course/en/images/03_tips_for_advertisers/hotImage/image_tools.png",
                "alt": "替换文本",
                "title": "标题文本",
                "_classes": "cols-2 rows-1"
            },
            "_classes": "",
            "_top": 60,
            "_left": 80
        },
        {
            "title": "图片主题",
            "body": "照片和视频拍摄的画面应精致美观、与众不同，同时保留真实性和新鲜度。不论图片的主题是人物还是物体，拍摄时都应在构图中融入品牌标识或品牌主张。",
            "strapline": "图片主题",
            "_graphic": {
                "src": "course/en/images/03_tips_for_advertisers/hotImage/image_subjects.png",
                "alt": "替换文本",
                "title": "标题文本",
                "_classes": "cols-2 rows-1"
            },
            "_classes": "",
            "_top": 18,
            "_left": 55
        }
    ]
  },
  {
        "_id":"c-125",
        "_parentId":"b-125",
        "_type":"component",
        "_component":"text",
        "_classes":"",
        "_layout":"full",
        "title":"在 Instagram 发布图片或视频时应遵守的一些注意事项",
        "displayTitle":"",
        "body":"下面是在 Instagram 发布图片或视频时应遵守的一些注意事项。",
        "instruction":"",
        "_pageLevelProgress": {
        "_isEnabled": true
        }
    },
    {
        "_id":"c-126",
        "_parentId":"b-125",
        "_type":"component",
        "_component":"text",
        "_classes":"",
        "_layout":"left",
        "title":"不建议：",
        "displayTitle":"不建议：",
        "body":"请勿使用构图拥挤或复杂的图片。 因为这类图片容易分散观看者的注意力，导致他们忽视您的广告。<br><br>请勿使用容易让受众觉得无关的内容，如为某一活动添加具体日期或时间。用户随时都可能访问 Instagram，但我们不知道准确的访问时间。所以，如果受众在下午或晚上看到一则提到“早上”的广告，就会觉得广告与他们无关。<br><br>请勿包含侵犯或违反任何第三方权利的内容，包括版权、商标权、隐私权、公众形象或其他个人权利或所有权。此规定适用于您添加的图片、说明以及任何话题标签。",
        "instruction":"",
        "_pageLevelProgress": {
        "_isEnabled": true
        }
    },
    {
        "_id":"c-127",
        "_parentId":"b-125",
        "_type":"component",
        "_component":"text",
        "_classes":"",
        "_layout":"right",
        "title":"建议：",
        "displayTitle":"建议：",
        "body":"添加图片说明，简明扼要地传递信息。<br><br>拍摄照片时，应在商品或包装上展示品牌徽标。<br><br>确保图片视觉焦点突出，能传递明确的信息。<br><br>创建内容时应考虑到目标受众。 请记住，广告会在一天中的不同时段随机展示，所以展示的内容不应有特定的时间顺序。<br><br>如果您打算在广告中使用他人创作的图片和视频，应务必获得对方的许可。 双方必须就采用的授权模式达成一致。",
        "instruction":"",
        "_pageLevelProgress": {
        "_isEnabled": true
        }
    },
    {
        "_id":"c-130",
        "_parentId":"b-130",
        "_type":"component",
        "_component":"text",
        "_classes":"",
        "_layout":"full",
        "title":"吸引和留住关注者的最佳方式",
        "displayTitle":"",
        "body":"请记住，吸引和留住关注者的最佳方式是创建原汁原味、高品质、体现品牌特色的内容，因为这才是社群用户愿意在自己的 Instagram 动态中看到的内容。 使用图片和说明讲述生动有趣的品牌故事是不错的办法。<br><br>请访问 <a href='https://business.facebook.com' target='_blank'>business.facebook.com</a>，前往商务管理平台激活您的 Instagram 帐户。如果您没有商务管理平台，也可在 Power Editor 激活。<br><br>我们建议您查看其他已开放的关于 Instagram 的 Blueprint 课程。",
        "instruction":"",
        "_pageLevelProgress": {
        "_isEnabled": true
        }
    },
    {
        "_id":"c-140",
        "_parentId":"b-140",
        "_type":"component",
        "_component":"co-jump",
        "_classes":"color-test",
        "_preLinkBody":"现在我们来做一个 ",
        "_linkBody":"知识测验",
        "_postLinkBody":"。",
        "_link":"#/id/co-20",
        "_graphic":"adapt/css/assets/icon_nextPage.png",
        "_pageLevelProgress": {
            "_isEnabled": false
        }
    },
    {
        "_id":"c-200",
        "_parentId":"b-200",
        "_type":"component",
        "_component":"mcq",
        "_classes":"",
        "_layout":"full",
        "_attempts":1,
        "_questionWeight":1,
        "_isRandom":false,
        "_selectable":2,
        "_setCompletionOn":"inview",
        "title": "问题 1/4",
        "displayTitle": "问题 1/4",
        "body": "在 Instagram 投放广告有什么优势？ （正确答案有 2 项）",
        "instruction": "",
        "_items": [
            {
                "text": "利用 Instagram 这一汇聚丰富视觉内容的平台，各商家可通过独特的故事讲述手法宣传商品、应用或服务。",
                "_shouldBeSelected":true
            },
            {
                "text": "Instagram 广告会被清楚地标记为广告主内容，与其他自然内容相区分，这让您能够成功吸引受众的注意。",
                "_shouldBeSelected":false
            },
            {
                "text": "广告主的内容可与用户关注的其他社群内容无痕融合，一同展示在动态消息中。",
                "_shouldBeSelected":true
            },
            {
                "text": "制作精良的高品质视觉内容可为广告主带来最大的广告花费回报。",
                "_shouldBeSelected":false
            }
        ],
        "_feedback":{
            "correct":"回答正确！商家应在 Instagram 投放广告的原因在于，他们的内容可与用户关注的其他社群内容无痕融合，一同展示在动态消息中。 此外，利用 Instagram 这一汇聚丰富视觉内容的平台，他们还可通过独特的故事讲述手法宣传商品、应用或服务。",
            "_incorrect": {
                "notFinal": "",
                "final": "很遗憾，回答错误！ 商家应在 Instagram 投放广告的原因在于，他们的内容可与用户关注的其他社群内容无痕融合，一同展示在动态消息中。 此外，利用 Instagram 这一汇聚丰富视觉内容的平台，他们还可通过独特的故事讲述手法宣传商品、应用或服务。"
            },
            "_partlyCorrect": {
                "notFinal": "",
                "final": "商家应在 Instagram 投放广告的原因在于，他们的内容可与用户关注的其他社群内容无痕融合，一同展示在动态消息中。 此外，利用 Instagram 这一汇聚丰富视觉内容的平台，他们还可通过独特的故事讲述手法宣传商品、应用或服务。"
            }
        },
        "_pageLevelProgress": {
            "_isEnabled": true
        }
    },
    {
        "_id":"c-210",
        "_parentId":"b-210",
        "_type":"component",
        "_component":"mcq",
        "_classes":"",
        "_layout":"full",
        "_attempts":1,
        "_questionWeight":1,
        "_isRandom":false,
        "_selectable":2,
        "_setCompletionOn":"inview",
        "title": "问题 2/4",
        "displayTitle": "问题 2/4",
        "body": "对于在 Instagram 投放广告而言，下列哪些是推荐使用的创意最佳实践？ （正确答案有 2 项）",
        "instruction": "",
        "_items": [
            {
                "text": "避免在图片和视频中展示品牌徽标。",
                "_shouldBeSelected":false
            },
            {
                "text": "使用制作精良的广告在 Instagram 提升品牌影响力。",
                "_shouldBeSelected":true
            },
            {
                "text": "设立清晰的广告目标，并根据广告目标制作创意。",
                "_shouldBeSelected":true
            },
            {
                "text": "重新利用历史营销活动的现有创意。",
                "_shouldBeSelected":false
            }
        ],
        "_feedback":{
            "correct":"回答正确！ 您应该设立清晰的广告目标，并根据广目标制作创意。 还应该使用精心制作的广告在 Instagram 提升品牌影响力。",
            "_incorrect": {
                "notFinal": "",
                "final": "很遗憾，回答错误！ 您应该设立清晰的广告目标，并根据广目标制作创意。 还应该使用精心制作的广告在 Instagram 提升品牌影响力。"
            },
            "_partlyCorrect": {
                "notFinal": "",
                "final": "您应该设立清晰的广告目标，并根据广目标制作创意。 还应该使用精心制作的广告在 Instagram 提升品牌影响力。"
            }
        },
        "_pageLevelProgress": {
            "_isEnabled": true
        }
    },
    {
        "_id":"c-220",
        "_parentId":"b-220",
        "_type":"component",
        "_component":"mcq",
        "_classes":"",
        "_layout":"full",
        "_attempts":1,
        "_questionWeight":1,
        "_isRandom":false,
        "_selectable":2,
        "_setCompletionOn":"inview",
        "title": "问题 3/4",
        "displayTitle": "问题 3/4",
        "body": "下列哪些是关于在 Instagram 投放广告的建议和技巧？ （正确答案有 2 项）",
        "instruction": "",
        "_items": [
            {
                "text": "拍摄照片时，应在商品或包装上展示品牌徽标。",
                "_shouldBeSelected":true
            },
            {
                "text": "采用复杂构图来突显商品，充分发挥广告的功效。",
                "_shouldBeSelected":false
            },
            {
                "text": "确保图片视觉焦点突出，能传递明确的信息。",
                "_shouldBeSelected":true
            },
            {
                "text": "确保广告内容能体现具体的活动时间，为受众提供详细背景信息。",
                "_shouldBeSelected":false
            }
        ],
        "_feedback":{
            "correct":"回答正确！ 如果可能，我们建议拍摄照片时在商品或包装上展示品牌徽标，同时确保图片视觉焦点突出，能传递明确的信息。",
            "_incorrect": {
                "notFinal": "",
                "final": "很遗憾，回答错误！ 如果可能，我们建议拍摄照片时在商品或包装上展示品牌徽标，同时确保图片视觉焦点突出，能传递明确的信息。"
            },
            "_partlyCorrect": {
                "notFinal": "",
                "final": "如果可能，我们建议拍摄照片时在商品或包装上展示品牌徽标，同时确保图片视觉焦点突出，能传递明确的信息。"
            }
        },
        "_pageLevelProgress": {
            "_isEnabled": true
        }
    },
    {
        "_id":"c-230",
        "_parentId":"b-230",
        "_type":"component",
        "_component":"mcq",
        "_classes":"",
        "_layout":"full",
        "_attempts":1,
        "_questionWeight":1,
        "_isRandom":false,
        "_selectable":1,
        "_setCompletionOn":"inview",
        "title": "问题 4/4",
        "displayTitle": "问题 4/4",
        "body": "Instagram 广告适用于什么类型的商家？ （正确答案有 1 项）",
        "instruction": "",
        "_items": [
            {
                "text": "小商家",
                "_shouldBeSelected":false
            },
            {
                "text": "大型广告主",
                "_shouldBeSelected":false
            },
            {
                "text": "广告经销商",
                "_shouldBeSelected":false
            },
            {
                "text": "各种规模的商家",
                "_shouldBeSelected":true
            }
        ],
        "_feedback":{
            "correct":"回答正确！ 各种规模的商家都可以在 Instagram 投放广告。",
            "_incorrect": {
                "notFinal": "",
                "final": "很遗憾，回答错误！ 各种规模的商家都可以在 Instagram 投放广告。"
            }
        },
        "_pageLevelProgress": {
            "_isEnabled": true
        }
    },
    {
        "_id":"c-290",
        "_parentId":"b-290",
        "_type":"component",
        "_component":"co-jump",
        "_classes":"color-test",
        "_autoComplete":true,
        "_preLinkBody":"点击下方按钮，结束课程学习。注意：<a href='#'>点击此处</a>确认各章节均已完成。<br>",
        "_linkBody":"<div style = 'text-align:center;padding:8px;'><button class='buttons-action'><b>我已完成本课程的学习</b></button></div><br> ",
        "_postLinkBody":"",
        "_link":"",
        "_pageLevelProgress": {
            "_isEnabled": false
        }
    }
]
